…
Distributions for Outliers is highly-right-skewed histgram, most of outliers cluster in low values of &lt;2500 and the counts decrease as the value increases.

### Aggregate accross minutes

``` r
total_activity_over_day = am_data_tidy %>% 
  group_by(week, day, date) %>% 
  summarise(total = as.integer(sum(act_counts)))
total_activity_over_day
```

    ## # A tibble: 329 x 4
    ## # Groups:   week, day [?]
    ##     week day        date  total
    ##    <int> <fct>     <int>  <int>
    ##  1     1 Sunday        1 196937
    ##  2     1 Monday        2 432750
    ##  3     1 Tuesday       3 297427
    ##  4     1 Wednesday     4 369435
    ##  5     1 Thursday      5 366178
    ##  6     1 Friday        6 416165
    ##  7     1 Saturday      7   1440
    ##  8     2 Sunday        8   1440
    ##  9     2 Monday        9 275174
    ## 10     2 Tuesday      10 293201
    ## # ... with 319 more rows
…
